FPGA_Projects20250804/ModesimTest/simulation/modelsim/waveform.vcd
$date
	Sat Aug 16 21:38:17 2025
$end
$version
	ModelSim Version 10.5b
$end
$timescale
	1ps
$end

$scope module simple_top_tb $end
$var reg 1 ! clk $end
$var reg 1 " rst_n $end
$var wire 1 # led_out [3] $end
$var wire 1 $ led_out [2] $end
$var wire 1 % led_out [1] $end
$var wire 1 & led_out [0] $end

$scope module uut $end
$var wire 1 ' clk $end
$var wire 1 ( rst_n $end
$var wire 1 # led_out [3] $end
$var wire 1 $ led_out [2] $end
$var wire 1 % led_out [1] $end
$var wire 1 & led_out [0] $end
$var wire 1 ) gnd $end
$var wire 1 * vcc $end
$var wire 1 + unknown $end
$var tri1 1 , devclrn $end
$var tri1 1 - devpor $end
$var tri1 1 . devoe $end
$var wire 1 / led_out[0]~output_o $end
$var wire 1 0 led_out[1]~output_o $end
$var wire 1 1 led_out[2]~output_o $end
$var wire 1 2 led_out[3]~output_o $end
$var wire 1 3 clk~input_o $end
$var wire 1 4 clk~inputclkctrl_outclk $end
$var wire 1 5 u_counter|count_reg[0]~3_combout $end
$var wire 1 6 rst_n~input_o $end
$var wire 1 7 rst_n~inputclkctrl_outclk $end
$var wire 1 8 u_counter|count_reg[1]~0_combout $end
$var wire 1 9 u_counter|count_reg[2]~1_combout $end
$var wire 1 : u_counter|count_reg[3]~2_combout $end
$var wire 1 ; u_counter|count_reg [3] $end
$var wire 1 < u_counter|count_reg [2] $end
$var wire 1 = u_counter|count_reg [1] $end
$var wire 1 > u_counter|count_reg [0] $end

$scope module auto_generated_inst $end
$var wire 1 - devpor $end
$var wire 1 , devclrn $end
$var wire 1 . devoe $end
$var wire 1 ? gnd $end
$var wire 1 @ vcc $end
$var wire 1 A unknown $end
$var wire 1 B ~ALTERA_ASDO_DATA1~~padout $end
$var wire 1 C ~ALTERA_FLASH_nCE_nCSO~~padout $end
$var wire 1 D ~ALTERA_DATA0~~padout $end
$var wire 1 E ~ALTERA_ASDO_DATA1~~ibuf_o $end
$var wire 1 F ~ALTERA_FLASH_nCE_nCSO~~ibuf_o $end
$var wire 1 G ~ALTERA_DATA0~~ibuf_o $end
$upscope $end

$scope module led_out[0]~output $end
$var parameter 40 H open_drain_output $end
$var parameter 40 I bus_hold $end
$var parameter 144 J lpm_type $end
$var wire 1 K i $end
$var tri1 1 * oe $end
$var tri1 1 . devoe $end
$var wire 1 L seriesterminationcontrol [15] $end
$var wire 1 M seriesterminationcontrol [14] $end
$var wire 1 N seriesterminationcontrol [13] $end
$var wire 1 O seriesterminationcontrol [12] $end
$var wire 1 P seriesterminationcontrol [11] $end
$var wire 1 Q seriesterminationcontrol [10] $end
$var wire 1 R seriesterminationcontrol [9] $end
$var wire 1 S seriesterminationcontrol [8] $end
$var wire 1 T seriesterminationcontrol [7] $end
$var wire 1 U seriesterminationcontrol [6] $end
$var wire 1 V seriesterminationcontrol [5] $end
$var wire 1 W seriesterminationcontrol [4] $end
$var wire 1 X seriesterminationcontrol [3] $end
$var wire 1 Y seriesterminationcontrol [2] $end
$var wire 1 Z seriesterminationcontrol [1] $end
$var wire 1 [ seriesterminationcontrol [0] $end
$var wire 1 / o $end
$var wire 1 \ obar $end
$var reg 1 ] out_tmp $end
$var reg 1 ^ out_tmp_bar $end
$var reg 1 _ prev_value $end
$var wire 1 ` tmp $end
$var wire 1 a tmp_bar $end
$var wire 1 b tmp1 $end
$var wire 1 c tmp1_bar $end
$upscope $end

$scope module led_out[1]~output $end
$var parameter 40 d open_drain_output $end
$var parameter 40 e bus_hold $end
$var parameter 144 f lpm_type $end
$var wire 1 g i $end
$var tri1 1 * oe $end
$var tri1 1 . devoe $end
$var wire 1 h seriesterminationcontrol [15] $end
$var wire 1 i seriesterminationcontrol [14] $end
$var wire 1 j seriesterminationcontrol [13] $end
$var wire 1 k seriesterminationcontrol [12] $end
$var wire 1 l seriesterminationcontrol [11] $end
$var wire 1 m seriesterminationcontrol [10] $end
$var wire 1 n seriesterminationcontrol [9] $end
$var wire 1 o seriesterminationcontrol [8] $end
$var wire 1 p seriesterminationcontrol [7] $end
$var wire 1 q seriesterminationcontrol [6] $end
$var wire 1 r seriesterminationcontrol [5] $end
$var wire 1 s seriesterminationcontrol [4] $end
$var wire 1 t seriesterminationcontrol [3] $end
$var wire 1 u seriesterminationcontrol [2] $end
$var wire 1 v seriesterminationcontrol [1] $end
$var wire 1 w seriesterminationcontrol [0] $end
$var wire 1 0 o $end
$var wire 1 x obar $end
$var reg 1 y out_tmp $end
$var reg 1 z out_tmp_bar $end
$var reg 1 { prev_value $end
$var wire 1 | tmp $end
$var wire 1 } tmp_bar $end
$var wire 1 ~ tmp1 $end
$var wire 1 !! tmp1_bar $end
$upscope $end

$scope module led_out[2]~output $end
$var parameter 40 "! open_drain_output $end
$var parameter 40 #! bus_hold $end
$var parameter 144 $! lpm_type $end
$var wire 1 %! i $end
$var tri1 1 * oe $end
$var tri1 1 . devoe $end
$var wire 1 &! seriesterminationcontrol [15] $end
$var wire 1 '! seriesterminationcontrol [14] $end
$var wire 1 (! seriesterminationcontrol [13] $end
$var wire 1 )! seriesterminationcontrol [12] $end
$var wire 1 *! seriesterminationcontrol [11] $end
$var wire 1 +! seriesterminationcontrol [10] $end
$var wire 1 ,! seriesterminationcontrol [9] $end
$var wire 1 -! seriesterminationcontrol [8] $end
$var wire 1 .! seriesterminationcontrol [7] $end
$var wire 1 /! seriesterminationcontrol [6] $end
$var wire 1 0! seriesterminationcontrol [5] $end
$var wire 1 1! seriesterminationcontrol [4] $end
$var wire 1 2! seriesterminationcontrol [3] $end
$var wire 1 3! seriesterminationcontrol [2] $end
$var wire 1 4! seriesterminationcontrol [1] $end
$var wire 1 5! seriesterminationcontrol [0] $end
$var wire 1 1 o $end
$var wire 1 6! obar $end
$var reg 1 7! out_tmp $end
$var reg 1 8! out_tmp_bar $end
$var reg 1 9! prev_value $end
$var wire 1 :! tmp $end
$var wire 1 ;! tmp_bar $end
$var wire 1 <! tmp1 $end
$var wire 1 =! tmp1_bar $end
$upscope $end

$scope module led_out[3]~output $end
$var parameter 40 >! open_drain_output $end
$var parameter 40 ?! bus_hold $end
$var parameter 144 @! lpm_type $end
$var wire 1 A! i $end
$var tri1 1 * oe $end
$var tri1 1 . devoe $end
$var wire 1 B! seriesterminationcontrol [15] $end
$var wire 1 C! seriesterminationcontrol [14] $end
$var wire 1 D! seriesterminationcontrol [13] $end
$var wire 1 E! seriesterminationcontrol [12] $end
$var wire 1 F! seriesterminationcontrol [11] $end
$var wire 1 G! seriesterminationcontrol [10] $end
$var wire 1 H! seriesterminationcontrol [9] $end
$var wire 1 I! seriesterminationcontrol [8] $end
$var wire 1 J! seriesterminationcontrol [7] $end
$var wire 1 K! seriesterminationcontrol [6] $end
$var wire 1 L! seriesterminationcontrol [5] $end
$var wire 1 M! seriesterminationcontrol [4] $end
$var wire 1 N! seriesterminationcontrol [3] $end
$var wire 1 O! seriesterminationcontrol [2] $end
$var wire 1 P! seriesterminationcontrol [1] $end
$var wire 1 Q! seriesterminationcontrol [0] $end
$var wire 1 2 o $end
$var wire 1 R! obar $end
$var reg 1 S! out_tmp $end
$var reg 1 T! out_tmp_bar $end
$var reg 1 U! prev_value $end
$var wire 1 V! tmp $end
$var wire 1 W! tmp_bar $end
$var wire 1 X! tmp1 $end
$var wire 1 Y! tmp1_bar $end
$upscope $end

$scope module clk~input $end
$var parameter 40 Z! differential_mode $end
$var parameter 40 [! bus_hold $end
$var parameter 8 \! simulate_z_as $end
$var parameter 144 ]! lpm_type $end
$var wire 1 ' i $end
$var wire 1 ) ibar $end
$var wire 1 3 o $end
$var reg 1 ^! out_tmp $end
$var reg 1 _! o_tmp $end
$var wire 1 `! out_val $end
$var reg 1 a! prev_value $end
$upscope $end

$scope module clk~inputclkctrl $end
$var parameter 96 b! clock_type $end
$var parameter 32 c! ena_register_mode $end
$var parameter 144 d! lpm_type $end
$var wire 1 * inclk [3] $end
$var wire 1 * inclk [2] $end
$var wire 1 * inclk [1] $end
$var wire 1 e! inclk [0] $end
$var wire 1 f! clkselect [1] $end
$var wire 1 g! clkselect [0] $end
$var wire 1 * ena $end
$var tri1 1 - devpor $end
$var tri1 1 , devclrn $end
$var wire 1 4 outclk $end
$var wire 1 h! clkmux_out $end
$var wire 1 i! cereg1_out $end
$var wire 1 j! cereg2_out $end
$var wire 1 k! ena_out $end
$var wire 1 l! inclk3_ipd $end
$var wire 1 m! inclk2_ipd $end
$var wire 1 n! inclk1_ipd $end
$var wire 1 o! inclk0_ipd $end
$var wire 1 p! clkselect1_ipd $end
$var wire 1 q! clkselect0_ipd $end
$var wire 1 r! ena_ipd $end

$scope module clk_mux $end
$var wire 1 o! IN0 $end
$var wire 1 n! IN1 $end
$var wire 1 m! IN2 $end
$var wire 1 l! IN3 $end
$var wire 1 p! S [1] $end
$var wire 1 q! S [0] $end
$var wire 1 h! MO $end
$var wire 1 s! IN0_in $end
$var wire 1 t! IN1_in $end
$var wire 1 u! IN2_in $end
$var wire 1 v! IN3_in $end
$var wire 1 w! S1_in $end
$var wire 1 x! S0_in $end
$var wire 1 y! tmp_MO $end
$upscope $end

$scope module extena0_reg $end
$var wire 1 r! d $end
$var wire 1 z! clk $end
$var tri1 1 {! clrn $end
$var tri1 1 - prn $end
$var tri1 1 |! ena $end
$var wire 1 i! q $end
$var reg 1 }! q_tmp $end
$var reg 1 ~! violation $end
$var reg 1 !" d_viol $end
$var reg 1 "" clk_last_value $end
$var wire 1 #" reset $end
$var wire 1 $" d_in $end
$var wire 1 %" clk_in $end
$upscope $end

$scope module extena1_reg $end
$var wire 1 i! d $end
$var wire 1 &" clk $end
$var tri1 1 '" clrn $end
$var tri1 1 - prn $end
$var tri1 1 (" ena $end
$var wire 1 j! q $end
$var reg 1 )" q_tmp $end
$var reg 1 *" violation $end
$var reg 1 +" d_viol $end
$var reg 1 ," clk_last_value $end
$var wire 1 -" reset $end
$var wire 1 ." d_in $end
$var wire 1 /" clk_in $end
$upscope $end
$upscope $end

$scope module u_counter|count_reg[0]~3 $end
$var parameter 16 0" lut_mask $end
$var parameter 40 1" sum_lutc_input $end
$var parameter 24 2" dont_touch $end
$var parameter 168 3" lpm_type $end
$var wire 1 ) dataa $end
$var wire 1 ) datab $end
$var wire 1 > datac $end
$var wire 1 ) datad $end
$var wire 1 ) cin $end
$var wire 1 5 combout $end
$var wire 1 4" cout $end
$var reg 1 5" cout_tmp $end
$var reg 1 6" combout_tmp $end
$var reg 2 7" isum_lutc_input [1:0] $end
$var wire 1 8" dataa_in $end
$var wire 1 9" datab_in $end
$var wire 1 :" datac_in $end
$var wire 1 ;" datad_in $end
$var wire 1 <" cin_in $end

$scope function lut4 $end
$var reg 1 =" lut4 $end
$var reg 16 >" mask [15:0] $end
$var reg 1 ?" dataa $end
$var reg 1 @" datab $end
$var reg 1 A" datac $end
$var reg 1 B" datad $end
$upscope $end
$upscope $end

$scope module rst_n~input $end
$var parameter 40 C" differential_mode $end
$var parameter 40 D" bus_hold $end
$var parameter 8 E" simulate_z_as $end
$var parameter 144 F" lpm_type $end
$var wire 1 ( i $end
$var wire 1 ) ibar $end
$var wire 1 6 o $end
$var reg 1 G" out_tmp $end
$var reg 1 H" o_tmp $end
$var wire 1 I" out_val $end
$var reg 1 J" prev_value $end
$upscope $end

$scope module rst_n~inputclkctrl $end
$var parameter 96 K" clock_type $end
$var parameter 32 L" ena_register_mode $end
$var parameter 144 M" lpm_type $end
$var wire 1 * inclk [3] $end
$var wire 1 * inclk [2] $end
$var wire 1 * inclk [1] $end
$var wire 1 N" inclk [0] $end
$var wire 1 O" clkselect [1] $end
$var wire 1 P" clkselect [0] $end
$var wire 1 * ena $end
$var tri1 1 - devpor $end
$var tri1 1 , devclrn $end
$var wire 1 7 outclk $end
$var wire 1 Q" clkmux_out $end
$var wire 1 R" cereg1_out $end
$var wire 1 S" cereg2_out $end
$var wire 1 T" ena_out $end
$var wire 1 U" inclk3_ipd $end
$var wire 1 V" inclk2_ipd $end
$var wire 1 W" inclk1_ipd $end
$var wire 1 X" inclk0_ipd $end
$var wire 1 Y" clkselect1_ipd $end
$var wire 1 Z" clkselect0_ipd $end
$var wire 1 [" ena_ipd $end

$scope module clk_mux $end
$var wire 1 X" IN0 $end
$var wire 1 W" IN1 $end
$var wire 1 V" IN2 $end
$var wire 1 U" IN3 $end
$var wire 1 Y" S [1] $end
$var wire 1 Z" S [0] $end
$var wire 1 Q" MO $end
$var wire 1 \" IN0_in $end
$var wire 1 ]" IN1_in $end
$var wire 1 ^" IN2_in $end
$var wire 1 _" IN3_in $end
$var wire 1 `" S1_in $end
$var wire 1 a" S0_in $end
$var wire 1 b" tmp_MO $end
$upscope $end

$scope module extena0_reg $end
$var wire 1 [" d $end
$var wire 1 c" clk $end
$var tri1 1 d" clrn $end
$var tri1 1 - prn $end
$var tri1 1 e" ena $end
$var wire 1 R" q $end
$var reg 1 f" q_tmp $end
$var reg 1 g" violation $end
$var reg 1 h" d_viol $end
$var reg 1 i" clk_last_value $end
$var wire 1 j" reset $end
$var wire 1 k" d_in $end
$var wire 1 l" clk_in $end
$upscope $end

$scope module extena1_reg $end
$var wire 1 R" d $end
$var wire 1 m" clk $end
$var tri1 1 n" clrn $end
$var tri1 1 - prn $end
$var tri1 1 o" ena $end
$var wire 1 S" q $end
$var reg 1 p" q_tmp $end
$var reg 1 q" violation $end
$var reg 1 r" d_viol $end
$var reg 1 s" clk_last_value $end
$var wire 1 t" reset $end
$var wire 1 u" d_in $end
$var wire 1 v" clk_in $end
$upscope $end
$upscope $end

$scope module u_counter|count_reg[0] $end
$var parameter 24 w" power_up $end
$var parameter 32 x" is_wysiwyg $end
$var parameter 40 y" dont_touch $end
$var parameter 16 z" x_on_violation $end
$var parameter 40 {" sclr_over_ena $end
$var parameter 48 |" lpm_type $end
$var wire 1 }" d $end
$var wire 1 ~" clk $end
$var wire 1 * ena $end
$var wire 1 !# clrn $end
$var wire 1 * prn $end
$var wire 1 ) aload $end
$var wire 1 * asdata $end
$var wire 1 ) sclr $end
$var wire 1 ) sload $end
$var wire 1 , devclrn $end
$var wire 1 - devpor $end
$var wire 1 > q $end
$var wire 1 "# q_high $end
$var wire 1 ## q_low $end
$var tri0 1 $# aload_in $end
$var tri0 1 %# sclr_in $end
$var tri0 1 &# sload_in $end
$var tri0 1 '# asdata_in $end
$var tri1 1 (# prn_in $end
$var tri1 1 )# clrn_in $end
$var tri1 1 *# ena_in $end
$var tri1 1 +# devclrn_in $end
$var tri1 1 ,# devpor_in $end
$var wire 1 -# q_tmp $end
$var reg 1 .# viol $end
$var reg 1 /# q_tmp_dly $end
$var wire 1 0# reset $end
$var wire 1 1# nosloadsclr $end
$var wire 1 2# sloaddata $end

$scope begin genblk1 $end

$scope begin genblk1 $end
$upscope $end
$upscope $end

$scope begin genblk2 $end
$upscope $end
$upscope $end

$scope module u_counter|count_reg[1]~0 $end
$var parameter 16 3# lut_mask $end
$var parameter 40 4# sum_lutc_input $end
$var parameter 24 5# dont_touch $end
$var parameter 168 6# lpm_type $end
$var wire 1 ) dataa $end
$var wire 1 ) datab $end
$var wire 1 = datac $end
$var wire 1 7# datad $end
$var wire 1 ) cin $end
$var wire 1 8 combout $end
$var wire 1 8# cout $end
$var reg 1 9# cout_tmp $end
$var reg 1 :# combout_tmp $end
$var reg 2 ;# isum_lutc_input [1:0] $end
$var wire 1 <# dataa_in $end
$var wire 1 =# datab_in $end
$var wire 1 ># datac_in $end
$var wire 1 ?# datad_in $end
$var wire 1 @# cin_in $end

$scope function lut4 $end
$var reg 1 A# lut4 $end
$var reg 16 B# mask [15:0] $end
$var reg 1 C# dataa $end
$var reg 1 D# datab $end
$var reg 1 E# datac $end
$var reg 1 F# datad $end
$upscope $end
$upscope $end

$scope module u_counter|count_reg[1] $end
$var parameter 24 G# power_up $end
$var parameter 32 H# is_wysiwyg $end
$var parameter 40 I# dont_touch $end
$var parameter 16 J# x_on_violation $end
$var parameter 40 K# sclr_over_ena $end
$var parameter 48 L# lpm_type $end
$var wire 1 M# d $end
$var wire 1 N# clk $end
$var wire 1 * ena $end
$var wire 1 O# clrn $end
$var wire 1 * prn $end
$var wire 1 ) aload $end
$var wire 1 * asdata $end
$var wire 1 ) sclr $end
$var wire 1 ) sload $end
$var wire 1 , devclrn $end
$var wire 1 - devpor $end
$var wire 1 = q $end
$var wire 1 P# q_high $end
$var wire 1 Q# q_low $end
$var tri0 1 R# aload_in $end
$var tri0 1 S# sclr_in $end
$var tri0 1 T# sload_in $end
$var tri0 1 U# asdata_in $end
$var tri1 1 V# prn_in $end
$var tri1 1 W# clrn_in $end
$var tri1 1 X# ena_in $end
$var tri1 1 Y# devclrn_in $end
$var tri1 1 Z# devpor_in $end
$var wire 1 [# q_tmp $end
$var reg 1 \# viol $end
$var reg 1 ]# q_tmp_dly $end
$var wire 1 ^# reset $end
$var wire 1 _# nosloadsclr $end
$var wire 1 `# sloaddata $end

$scope begin genblk1 $end

$scope begin genblk1 $end
$upscope $end
$upscope $end

$scope begin genblk2 $end
$upscope $end
$upscope $end

$scope module u_counter|count_reg[2]~1 $end
$var parameter 16 a# lut_mask $end
$var parameter 40 b# sum_lutc_input $end
$var parameter 24 c# dont_touch $end
$var parameter 168 d# lpm_type $end
$var wire 1 e# dataa $end
$var wire 1 ) datab $end
$var wire 1 < datac $end
$var wire 1 f# datad $end
$var wire 1 ) cin $end
$var wire 1 9 combout $end
$var wire 1 g# cout $end
$var reg 1 h# cout_tmp $end
$var reg 1 i# combout_tmp $end
$var reg 2 j# isum_lutc_input [1:0] $end
$var wire 1 k# dataa_in $end
$var wire 1 l# datab_in $end
$var wire 1 m# datac_in $end
$var wire 1 n# datad_in $end
$var wire 1 o# cin_in $end

$scope function lut4 $end
$var reg 1 p# lut4 $end
$var reg 16 q# mask [15:0] $end
$var reg 1 r# dataa $end
$var reg 1 s# datab $end
$var reg 1 t# datac $end
$var reg 1 u# datad $end
$upscope $end
$upscope $end

$scope module u_counter|count_reg[2] $end
$var parameter 24 v# power_up $end
$var parameter 32 w# is_wysiwyg $end
$var parameter 40 x# dont_touch $end
$var parameter 16 y# x_on_violation $end
$var parameter 40 z# sclr_over_ena $end
$var parameter 48 {# lpm_type $end
$var wire 1 |# d $end
$var wire 1 }# clk $end
$var wire 1 * ena $end
$var wire 1 ~# clrn $end
$var wire 1 * prn $end
$var wire 1 ) aload $end
$var wire 1 * asdata $end
$var wire 1 ) sclr $end
$var wire 1 ) sload $end
$var wire 1 , devclrn $end
$var wire 1 - devpor $end
$var wire 1 < q $end
$var wire 1 !$ q_high $end
$var wire 1 "$ q_low $end
$var tri0 1 #$ aload_in $end
$var tri0 1 $$ sclr_in $end
$var tri0 1 %$ sload_in $end
$var tri0 1 &$ asdata_in $end
$var tri1 1 '$ prn_in $end
$var tri1 1 ($ clrn_in $end
$var tri1 1 )$ ena_in $end
$var tri1 1 *$ devclrn_in $end
$var tri1 1 +$ devpor_in $end
$var wire 1 ,$ q_tmp $end
$var reg 1 -$ viol $end
$var reg 1 .$ q_tmp_dly $end
$var wire 1 /$ reset $end
$var wire 1 0$ nosloadsclr $end
$var wire 1 1$ sloaddata $end

$scope begin genblk1 $end

$scope begin genblk1 $end
$upscope $end
$upscope $end

$scope begin genblk2 $end
$upscope $end
$upscope $end

$scope module u_counter|count_reg[3]~2 $end
$var parameter 16 2$ lut_mask $end
$var parameter 40 3$ sum_lutc_input $end
$var parameter 24 4$ dont_touch $end
$var parameter 168 5$ lpm_type $end
$var wire 1 6$ dataa $end
$var wire 1 7$ datab $end
$var wire 1 ; datac $end
$var wire 1 8$ datad $end
$var wire 1 ) cin $end
$var wire 1 : combout $end
$var wire 1 9$ cout $end
$var reg 1 :$ cout_tmp $end
$var reg 1 ;$ combout_tmp $end
$var reg 2 <$ isum_lutc_input [1:0] $end
$var wire 1 =$ dataa_in $end
$var wire 1 >$ datab_in $end
$var wire 1 ?$ datac_in $end
$var wire 1 @$ datad_in $end
$var wire 1 A$ cin_in $end

$scope function lut4 $end
$var reg 1 B$ lut4 $end
$var reg 16 C$ mask [15:0] $end
$var reg 1 D$ dataa $end
$var reg 1 E$ datab $end
$var reg 1 F$ datac $end
$var reg 1 G$ datad $end
$upscope $end
$upscope $end

$scope module u_counter|count_reg[3] $end
$var parameter 24 H$ power_up $end
$var parameter 32 I$ is_wysiwyg $end
$var parameter 40 J$ dont_touch $end
$var parameter 16 K$ x_on_violation $end
$var parameter 40 L$ sclr_over_ena $end
$var parameter 48 M$ lpm_type $end
$var wire 1 N$ d $end
$var wire 1 O$ clk $end
$var wire 1 * ena $end
$var wire 1 P$ clrn $end
$var wire 1 * prn $end
$var wire 1 ) aload $end
$var wire 1 * asdata $end
$var wire 1 ) sclr $end
$var wire 1 ) sload $end
$var wire 1 , devclrn $end
$var wire 1 - devpor $end
$var wire 1 ; q $end
$var wire 1 Q$ q_high $end
$var wire 1 R$ q_low $end
$var tri0 1 S$ aload_in $end
$var tri0 1 T$ sclr_in $end
$var tri0 1 U$ sload_in $end
$var tri0 1 V$ asdata_in $end
$var tri1 1 W$ prn_in $end
$var tri1 1 X$ clrn_in $end
$var tri1 1 Y$ ena_in $end
$var tri1 1 Z$ devclrn_in $end
$var tri1 1 [$ devpor_in $end
$var wire 1 \$ q_tmp $end
$var reg 1 ]$ viol $end
$var reg 1 ^$ q_tmp_dly $end
$var wire 1 _$ reset $end
$var wire 1 `$ nosloadsclr $end
$var wire 1 a$ sloaddata $end

$scope begin genblk1 $end

$scope begin genblk1 $end
$upscope $end
$upscope $end

$scope begin genblk2 $end
$upscope $end
$upscope $end
$upscope $end
$upscope $end
$enddefinitions $end
#0
$dumpvars
0!
0"
x]
x^
0_
xy
xz
0{
x7!
x8!
09!
xS!
xT!
0U!
0^!
0_!
0a!
1}!
0~!
x!"
x""
1)"
0*"
x+"
x,"
15"
16"
b0 7"
1="
b111100001111 >"
0?"
0@"
0A"
0B"
0G"
0H"
0J"
1f"
0g"
xh"
xi"
1p"
0q"
xr"
xs"
x.#
0/#
09#
x:#
b0 ;#
0A#
b111111110000 B#
0C#
0D#
0E#
0F#
x\#
0]#
0h#
xi#
b0 j#
0p#
b101101011110000 q#
xr#
0s#
0t#
0u#
x-$
0.$
0:$
x;$
b0 <$
0B$
b111100011110000 C$
xD$
xE$
0F$
0G$
x]$
0^$
b111100001111 0"
b111111110000 3#
b101101011110000 a#
b111100011110000 2$
b110011001100001011011000111001101100101 H
b110011001100001011011000111001101100101 I
b11000110111100101100011011011000110111101101110011001010110100101110110011001010101111101101001011011110101111101101111011000100111010101100110 J
b110011001100001011011000111001101100101 d
b110011001100001011011000111001101100101 e
b11000110111100101100011011011000110111101101110011001010110100101110110011001010101111101101001011011110101111101101111011000100111010101100110 f
b110011001100001011011000111001101100101 "!
b110011001100001011011000111001101100101 #!
b11000110111100101100011011011000110111101101110011001010110100101110110011001010101111101101001011011110101111101101111011000100111010101100110 $!
b110011001100001011011000111001101100101 >!
b110011001100001011011000111001101100101 ?!
b11000110111100101100011011011000110111101101110011001010110100101110110011001010101111101101001011011110101111101101111011000100111010101100110 @!
b110011001100001011011000111001101100101 Z!
b110011001100001011011000111001101100101 [!
b1111010 \!
b11000110111100101100011011011000110111101101110011001010110100101110110011001010101111101101001011011110101111101101001011000100111010101100110 ]!
b11001110110110001101111011000100110000101101100001000000110001101101100011011110110001101101011 b!
b1101110011011110110111001100101 c!
b11000110111100101100011011011000110111101101110011001010110100101110110011001010101111101100011011011000110101101100011011101000111001001101100 d!
b110010001100001011101000110000101100011 1"
b11011110110011001100110 2"
b11000110111100101100011011011000110111101101110011001010110100101110110011001010101111101101100011000110110010101101100011011000101111101100011011011110110110101100010 3"
b110011001100001011011000111001101100101 C"
b110011001100001011011000111001101100101 D"
b1111010 E"
b11000110111100101100011011011000110111101101110011001010110100101110110011001010101111101101001011011110101111101101001011000100111010101100110 F"
b11001110110110001101111011000100110000101101100001000000110001101101100011011110110001101101011 K"
b1101110011011110110111001100101 L"
b11000110111100101100011011011000110111101101110011001010110100101110110011001010101111101100011011011000110101101100011011101000111001001101100 M"
b11011000110111101110111 w"
b1110100011100100111010101100101 x"
b110011001100001011011000111001101100101 y"
b110111101101110 z"
b110011001100001011011000111001101100101 {"
b11001000110011001100110011001010110000101110011 |"
b110010001100001011101000110000101100011 4#
b11011110110011001100110 5#
b11000110111100101100011011011000110111101101110011001010110100101110110011001010101111101101100011000110110010101101100011011000101111101100011011011110110110101100010 6#
b11011000110111101110111 G#
b1110100011100100111010101100101 H#
b110011001100001011011000111001101100101 I#
b110111101101110 J#
b110011001100001011011000111001101100101 K#
b11001000110011001100110011001010110000101110011 L#
b110010001100001011101000110000101100011 b#
b11011110110011001100110 c#
b11000110111100101100011011011000110111101101110011001010110100101110110011001010101111101101100011000110110010101101100011011000101111101100011011011110110110101100010 d#
b11011000110111101110111 v#
b1110100011100100111010101100101 w#
b110011001100001011011000111001101100101 x#
b110111101101110 y#
b110011001100001011011000111001101100101 z#
b11001000110011001100110011001010110000101110011 {#
b110010001100001011101000110000101100011 3$
b11011110110011001100110 4$
b11000110111100101100011011011000110111101101110011001010110100101110110011001010101111101101100011000110110010101101100011011000101111101100011011011110110110101100010 5$
b11011000110111101110111 H$
b1110100011100100111010101100101 I$
b110011001100001011011000111001101100101 J$
b110111101101110 K$
b110011001100001011011000111001101100101 L$
b11001000110011001100110011001010110000101110011 M$
x&
x%
x$
x#
0)
1*
x+
1,
1-
1.
x/
x0
x1
x2
03
x4
15
06
x7
x8
x9
x:
0>
0=
0<
0;
0?
1@
xA
zB
zC
zD
zE
zF
zG
x`
xa
xb
xc
x|
x}
x~
x!!
x:!
x;!
x<!
x=!
xV!
xW!
xX!
xY!
z`!
xh!
1i!
1j!
1k!
1l!
1m!
1n!
xo!
0p!
0q!
1r!
xs!
1t!
1u!
1v!
0w!
0x!
xy!
0#"
1$"
x%"
0-"
1."
x/"
08"
09"
0:"
0;"
0<"
zI"
xQ"
1R"
1S"
1T"
1U"
1V"
1W"
xX"
0Y"
0Z"
1["
x\"
1]"
1^"
1_"
0`"
0a"
xb"
0j"
1k"
xl"
0t"
1u"
xv"
z"#
z##
0$#
0%#
0&#
1'#
1(#
x)#
1*#
1+#
1,#
0-#
x0#
x1#
02#
0<#
0=#
0>#
x?#
0@#
zP#
zQ#
0R#
0S#
0T#
1U#
1V#
xW#
1X#
1Y#
1Z#
0[#
x^#
x_#
0`#
xk#
0l#
0m#
xn#
0o#
z!$
z"$
0#$
0$$
0%$
1&$
1'$
x($
1)$
1*$
1+$
0,$
x/$
x0$
01$
x=$
x>$
0?$
x@$
0A$
zQ$
zR$
0S$
0T$
0U$
1V$
1W$
xX$
1Y$
1Z$
1[$
0\$
x_$
x`$
0a$
0(
0'
0P"
0O"
0g!
0f!
0Q!
0P!
0O!
0N!
0M!
0L!
0K!
0J!
0I!
0H!
0G!
0F!
0E!
0D!
0C!
0B!
05!
04!
03!
02!
01!
00!
0/!
0.!
0-!
0,!
0+!
0*!
0)!
0(!
0'!
0&!
0w
0v
0u
0t
0s
0r
0q
0p
0o
0n
0m
0l
0k
0j
0i
0h
0[
0Z
0Y
0X
0W
0V
0U
0T
0S
0R
0Q
0P
0O
0N
0M
0L
xK
x\
xg
xx
x%!
x6!
xA!
xR!
xe!
1'"
1("
x&"
1{!
1|!
xz!
14"
xN"
1n"
1o"
xm"
1d"
1e"
xc"
x}"
x~"
x!#
x7#
08#
xM#
xN#
xO#
xe#
xf#
0g#
x|#
x}#
x~#
x6$
x7$
x8$
09$
xN$
xO$
xP$
$end
#87
1}"
#173
0e!
0N"
0o!
0X"
0s!
0\"
0b"
0y!
0h!
0Q"
1m"
1c"
1&"
1z!
07
04
1v"
1l"
1/"
1%"
1""
1,"
1i"
1s"
#369
08$
0@$
0;$
#375
07#
0?#
0:#
#378
0f#
0n#
0i#
#394
07$
0>$
0E$
#418
0e#
0k#
0r#
#427
06$
0=$
0D$
#467
0A!
0S!
1T!
0V!
1W!
1Y!
0X!
1R!
#489
0K
0g
0y
1z
0]
1^
0|
1}
0`
1a
1c
0b
1!!
0~
1x
1\
#490
0%!
07!
18!
0:!
1;!
1=!
0<!
16!
#508
0:
#514
08
#517
09
#612
0N$
#618
0M#
#621
0|#
#2376
0~"
0N#
0}#
0O$
#2381
0!#
0O#
0~#
0P$
0X$
0($
0W#
0)#
00#
0^#
0/$
0_$
0`$
00$
0_#
01#
#3297
02
0#
#3330
01
0$
#3359
00
0/
0&
0%
#10000
1!
1'
1_!
1a!
1^!
#10730
13
#10917
1e!
1o!
1s!
1y!
1h!
0&"
0z!
14
0/"
0%"
0""
0,"
#13108
1~"
1N#
1}#
1O$
#20000
0!
0'
0_!
0a!
0^!
#20836
03
#21009
0e!
0o!
0s!
0y!
0h!
1&"
1z!
04
1/"
1%"
1""
1,"
#23212
0~"
0N#
0}#
0O$
#30000
1!
1'
1_!
1a!
1^!
#30730
13
#30917
1e!
1o!
1s!
1y!
1h!
0&"
0z!
14
0/"
0%"
0""
0,"
#33108
1~"
1N#
1}#
1O$
#40000
0!
0'
0_!
0a!
0^!
#40836
03
#41009
0e!
0o!
0s!
0y!
0h!
1&"
1z!
04
1/"
1%"
1""
1,"
#43212
0~"
0N#
0}#
0O$
#50000
1!
1'
1_!
1a!
1^!
#50730
13
#50917
1e!
1o!
1s!
1y!
1h!
0&"
0z!
14
0/"
0%"
0""
0,"
#53108
1~"
1N#
1}#
1O$
#60000
0!
0'
0_!
0a!
0^!
#60836
03
#61009
0e!
0o!
0s!
0y!
0h!
1&"
1z!
04
1/"
1%"
1""
1,"
#63212
0~"
0N#
0}#
0O$
